…
# Let's have a small preview ...
temp
```

```
## # A tibble: 100 x 2
##    class_var num_var
##    <chr>       <dbl>
##  1 a            90.2
##  2 c            93.2
##  3 b            58.4
##  4 c           139. 
##  5 a           107. 
##  6 b            93.6
##  7 a           105. 
##  8 b            74.8
##  9 a           108. 
## 10 c           126. 
## # … with 90 more rows
```
…
```r
temp$data[[1]] # Let's peal the onion
```

```
## # A tibble: 33 x 1
##    num_var
##      <dbl>
##  1    90.2
##  2   107. 
##  3   105. 
##  4   108. 
##  5   109. 
##  6    78.7
##  7    82.0
##  8    95.8
##  9   131. 
## 10   102. 
## # … with 23 more rows
```
…
```r
# A bigger [temp]
temp = tibble(class_var = sample(x = c("a","b","c"), size = 100, replace= TRUE), 
              num_var1 = rnorm(n = 100, mean = 100, sd = 20),
              num_var2 = rnorm(n = 100, mean = 50, sd = 10),
              num_var3 = rnorm(n = 100, mean = 30, sd = 5)
              )

temp # Peak
```

```
## # A tibble: 100 x 4
##    class_var num_var1 num_var2 num_var3
##    <chr>        <dbl>    <dbl>    <dbl>
##  1 c             71.8     57.3     28.1
##  2 b            102.      36.2     27.3
##  3 a             64.5     29.5     38.0
##  4 b             95.8     52.4     21.8
##  5 c             93.9     43.5     32.7
##  6 a             87.8     33.3     31.7
##  7 c             97.2     50.8     23.5
##  8 b            102.      39.3     23.1
##  9 a            115.      54.8     30.5
## 10 a            145.      63.7     28.9
## # … with 90 more rows
```
…
```r
temp2$foo_out[[1]] # n'Peal
```

```
## # A tibble: 31 x 2
##    foo1_results foo2_results
##           <dbl>        <dbl>
##  1         92.4         128.
##  2        120.          159.
##  3        114.          144.
##  4        140.          184.
##  5         92.4         129.
##  6        117.          152.
##  7        116.          163.
##  8        123.          159.
##  9        118.          157.
## 10        164.          205.
## # … with 21 more rows
```
…
